<?xml version="1.0" encoding="UTF-8"?>
<session version="1.0">
<refactoring accessors="true" comment="Delete 2 elements from project &apos;library-ejb&apos;&#x0D;&#x0A;- Original project: &apos;library-ejb&apos;&#x0D;&#x0A;- Original elements:&#x0D;&#x0A;     library-ejb/src/main/java/com.doranco.multitiers.ejb.interfaces&#x0D;&#x0A;     library-ejb/src/main/java/com.doranco.multitiers.exceptions" description="Delete elements" element1="/src\/main\/java&lt;com.doranco.multitiers.exceptions" element2="/src\/main\/java&lt;com.doranco.multitiers.ejb.interfaces" elements="2" flags="589830" id="org.eclipse.jdt.ui.delete" resources="0" stamp="1531469466050" subPackages="false" version="1.0"/>
</session>