INDEX VERSION 1.4+C:\Users\stagiaire\eclipse-workspace\library-root\.metadata\.plugins\org.eclipse.wst.jsdt.core\indexes
66798724.index
3363453865.index
2386639597.index
3315132861.index
2707375520.index
2700175506.index
1649656620.index
1328498593.index
