<?xml version="1.0" encoding="UTF-8"?>
<session version="1.0">
<refactoring accessors="true" comment="Delete 2 elements from project &apos;library-web&apos;&#x0D;&#x0A;- Original project: &apos;library-web&apos;&#x0D;&#x0A;- Original elements:&#x0D;&#x0A;     library-web/src/main/java/com.doranco.multitiers.ejb.interfaces&#x0D;&#x0A;     library-web/src/main/java/com.doranco.multitiers.exceptions" description="Delete elements" element1="/src\/main\/java&lt;com.doranco.multitiers.exceptions" element2="/src\/main\/java&lt;com.doranco.multitiers.ejb.interfaces" element3="/src\/main\/java&lt;com.doranco.multitiers.ejb" elements="3" flags="589830" id="org.eclipse.jdt.ui.delete" resources="0" stamp="1531470023147" subPackages="false" version="1.0"/>
</session>